[
  {
    "id": 1997,
    "army": "PanOceania",
    "army_id": 1999,
    "name": "Neoterran Capitaline Army",
    "legacy_name": "Neoterran Capitaline Army",
    "abbr": "Neoterran",
    "units": [
      {
        "comment": "Auxilia",
        "id": 1024,
        "ava": "T"
      },
      {
        "comment": "Fusiliers",
        "id": 1001,
        "ava": "5",
        "linkable": true
      },
      {
        "comment": "Hexas, Strategic Security Division",
        "id": 1025,
        "ava": "3"
      },
      {
        "comment": "Neoterra Bolts",
        "id": 1050,
        "ava": "T",
        "linkable": true
      },
      {
        "comment": "Black Friars",
        "id": 1051,
        "ava": "1"
      },
      {
        "comment": "Orc Troop",
        "id": 1006,
        "ava": "3"
      },
      {
        "comment": "Aquila Guard",
        "id": 1009,
        "ava": "3"
      },
      {
        "comment": "Swiss Guard",
        "id": 1010,
        "ava": "2"
      },
      {
        "comment": "Squalos",
        "id": 1011,
        "ava": "2"
      },
      {
        "comment": "Clausewitz Uhlans",
        "id": 1037,
        "ava": "2"
      },
      {
        "comment": "Locusts",
        "id": 1052,
        "ava": "2"
      },
      {
        "comment": "Aleph - Deva Functionaries",
        "id": 7007,
        "ava": "2"
      },
      {
        "comment": "Aleph - Garuda Tacbots",
        "id": 7008,
        "ava": "1"
      },
      {
        "comment": "Pathfinder Dronbot",
        "id": 1018,
        "ava": "2"
      },
      {
        "comment": "Sierra Dronbot",
        "id": 1019,
        "ava": "2"
      },
      {
        "comment": "Clipper Dronbot",
        "id": 1020,
        "ava": "2"
      },
      {
        "comment": "Fugazi Dronbot",
        "id": 1021,
        "ava": "3"
      },
      {
        "comment": "Armbots: Bulleteers",
        "id": 1040,
        "ava": "2"
      },
      {
        "comment": "Armbots: Peacemakers",
        "id": 1041,
        "ava": "2"
      },
      {
        "comment": "Palbots",
        "id": 1028,
        "ava": "2"
      },
      {
        "comment": "Mulebots",
        "id": 1027,
        "ava": "2"
      },
      {
        "comment": "Trauma-Doc",
        "id": 1016,
        "ava": "1"
      },
      {
        "comment": "Machinist",
        "id": 1017,
        "ava": "1"
      },
      {
        "comment": "Indigo Spec-Ops",
        "id": 1045,
        "ava": "1"
      },
      {
        "comment": "Fusilier Indigo Bipandra",
        "id": 1046,
        "ava": "1",
        "linkable": true,
        "note": "Counts as Fusilier for Fireteam composition"
      },
      {
        "comment": "Tech-Bees, Maintenance Battalions",
        "id": 1053,
        "ava": "1"
      },
      {
        "comment": "Mercenary - CSU, Corporate Security Unit",
        "id": 9020,
        "ava": "2"
      },
      {
        "comment": "Mercenary - Warcor",
        "id": 9017,
        "ava": "1"
      }
    ]
  }
]
